NYRR7
…
W_C_List <- c("W1C1","W1C2","W1C3","W1C4","W1C5","W1C6","W2C1","W2C2","W2C3","W2C4","W2C5","W2C6","W3C1","W3C2","W3C3","W3C4","W3C5","W3C6","W4C1","W4C2","W4C3","W4C4","W4C5","W4C6")

for (i in 1:24){
  x <- Sum_Table_Grouped[Sum_Table_Grouped$W_C == W_C_List[i],"Count"]
  assign(paste(W_C_List[i],"_Size",sep=""),as.numeric(x))
}

Now is a good time to visualize the wave and corral sizes to ensure they are relatively even:

Sum_Table_Grouped

## # A tibble: 24 x 2
##    W_C   Count
##    <chr> <int>
##  1 W1C1   2170
##  2 W1C2   2204
##  3 W1C3   2240
##  4 W1C4   2232
##  5 W1C5   2330
##  6 W1C6   2385
##  7 W2C1   2165
##  8 W2C2   2199
##  9 W2C3   2232
## 10 W2C4   1774
## # ... with 14 more rows

Sum_Table_Grouped_SL

## # A tibble: 72 x 2
##    W_C_L Count
##    <chr> <int>
##  1 W1C1B   725
##  2 W1C1G   725
##  3 W1C1O   720
##  4 W1C2B   742
##  5 W1C2G   715
##  6 W1C2O   747
##  7 W1C3B   700
##  8 W1C3G   730
##  9 W1C3O   810
## 10 W1C4B   730
## # ... with 62 more rows
…
Starting Line Capacity

Finally, we should take a look at our sample of runners and see at what rate they cross the starting line. In the block below, we will see how many runners cross the starting line in a give minute.

Clean_Results2$Gun_Start <- as.numeric(Clean_Results2$`gun time`) - as.numeric(Clean_Results2$MAR)

Clean_Results2$Gun_Start_Round<-floor(Clean_Results2$Gun_Start/60)
Clean_Results2 %>%
    group_by(Wave, Col, Gun_Start_Round) %>%
    summarise(Count = n()) %>%
  arrange(desc(Count))

## # A tibble: 387 x 4
## # Groups:   Wave, Col [13]
##    Wave  Col   Gun_Start_Round Count
##    <chr> <chr>           <dbl> <int>
##  1 W1    O                   0  1209
##  2 W2    G                  30   886
##  3 W1    B                   0   884
##  4 W1    G                   0   882
##  5 W1    O                   1   864
##  6 W1    B                   1   860
##  7 W2    O                  30   848
##  8 W1    G                   1   831
##  9 W3    O                  55   800
## 10 W1    G                   2   789
## # ... with 377 more rows
…
